{
    "uuid": "00000000-0000-0000-0000-000000000000",
    "name": "Test Instance",
    "description": null,
    "version": "1.19.2",
    "instance_path": "/tmp/cobble_core/test_instance",
    "libraries_path": "/tmp/cobble_core/libraries",
    "assets_path": "/tmp/cobble_core/assets",
    "fullscreen": false,
    "enable_custom_window_size": false,
    "custom_width": 1280,
    "custom_height": 720,
    "enable_custom_memory": false,
    "custom_min_memory": 1024,
    "custom_max_memory": 2048,
    "custom_java_executable": null,
    "custom_jvm_arguments": null,
    "environment_variables": [],
    "installed": false,
    "created": "2022-10-19T23:58:00.00Z"
}